Division,WeightClassKg,Place,Name,Team,BodyweightKg,Best3SquatKg,Best3BenchKg,Best3DeadliftKg,TotalKg,Equipment,Event,Sex
Boys,51.71,1,Justin Rocha,Friona,51.26,124.74,63.5,151.95,340.19,Single-ply,SBD,M
Boys,51.71,2,Raymon Aranda,Seagraves,51.53,120.2,74.84,145.15,340.19,Single-ply,SBD,M
Boys,51.71,3,Favian Castellanos,Sunray,49.99,115.67,63.5,127.01,306.17,Single-ply,SBD,M
Boys,51.71,4,Vinny Meza,Bovina,50.94,99.79,74.84,120.2,294.84,Single-ply,SBD,M
Boys,51.71,5,Jeremiah Ramirez,Levelland,46.72,90.72,52.16,136.08,278.96,Single-ply,SBD,M
Boys,51.71,6,Evan Paez,Muleshoe,50.53,92.99,52.16,127.01,272.16,Single-ply,SBD,M
Boys,51.71,7,Ignacio Romero,Plainview,43.54,102.06,40.82,90.72,233.6,Single-ply,SBD,M
Boys,51.71,8,Michael Crone,Floydada,51.07,70.31,54.43,102.06,226.8,Single-ply,SBD,M
Boys,51.71,9,Josh Chavarria,Floydada,49.9,90.72,52.16,79.38,222.26,Single-ply,SBD,M
Boys,51.71,10,Kordell Lawrence,Dalhart,49.44,83.91,43.09,92.99,219.99,Single-ply,SBD,M
Boys,51.71,DQ,Tyler Saldana,Floydada,49.71,,,,,Single-ply,SBD,M
Boys,55.79,1,Dominic Longoria,Levelland,55.61,147.42,79.38,142.88,369.68,Single-ply,SBD,M
Boys,55.79,2,Justin Tovar,Abernathy,54.52,138.35,92.99,124.74,356.07,Single-ply,SBD,M
Boys,55.79,3,Matthew Negrete,Seagraves,52.89,122.47,79.38,127.01,328.85,Single-ply,SBD,M
Boys,55.79,4,Juan Macias,Friona,55.07,111.13,68.04,124.74,303.91,Single-ply,SBD,M
Boys,59.87,5,Avery Alvarez,Plainview,55.97,104.33,56.7,113.4,274.42,Single-ply,SBD,M
Boys,55.79,6,Ronnie Doty,Panhandle,53.07,97.52,52.16,111.13,260.82,Single-ply,SBD,M
Boys,59.87,7,Alfonzo Mendoza,Floydada,55.88,88.45,56.7,115.67,260.82,Single-ply,SBD,M
Boys,55.79,8,Daniel Lara,Bovina,54.16,83.91,52.16,97.52,233.6,Single-ply,SBD,M
Boys,59.87,1,Keele Valenzuela,Kermit,59.24,181.44,95.25,167.83,444.52,Single-ply,SBD,M
Boys,59.87,2,Adam Martin,Sudan,59.33,165.56,86.18,181.44,433.18,Single-ply,SBD,M
Boys,59.87,3,Esdras Rodriguez,Friona,59.6,151.95,79.38,151.95,383.29,Single-ply,SBD,M
Boys,59.87,4,Ramiro Carmona,Bovina,58.38,145.15,68.04,165.56,378.75,Single-ply,SBD,M
Boys,59.87,5,Servando Cavazos,Abernathy,58.88,138.35,70.31,136.08,344.73,Single-ply,SBD,M
Boys,67.13,6,Daniel Patterson,Sunray,59.96,129.27,70.31,138.35,337.93,Single-ply,SBD,M
Boys,59.87,7,Zachary Salazar,Lamesa,58.6,127.01,83.91,124.74,335.66,Single-ply,SBD,M
Boys,59.87,8,Elijah Zambrano,Plainview,57.15,129.27,65.77,136.08,331.12,Single-ply,SBD,M
Boys,59.87,9,Antonio Alvarado,Levelland,56.52,124.74,61.23,120.2,306.17,Single-ply,SBD,M
Boys,59.87,10,Bernie De La Cruz,Bovina,59.33,106.59,58.97,140.61,306.17,Single-ply,SBD,M
Boys,59.87,11,Matthew Gallegos,Plainview,57.7,113.4,65.77,117.93,297.1,Single-ply,SBD,M
Boys,67.13,12,Emilio Miranda,Levelland,60.06,115.67,52.16,127.01,294.84,Single-ply,SBD,M
Boys,59.87,13,Pedro Dominguez,Bovina,58.69,90.72,58.97,124.74,274.42,Single-ply,SBD,M
Boys,59.87,14,Austin Dominguez,Abernathy,56.43,92.99,65.77,95.25,254.01,Single-ply,SBD,M
Boys,59.87,15,Steven Anna,Plains,58.24,74.84,65.77,108.86,249.48,Single-ply,SBD,M
Boys,59.87,16,Chase Raney,Lamesa,59.87,56.7,38.56,61.23,156.49,Single-ply,SBD,M
Boys,59.87,17,Campbell Cowan,Lamesa,58.69,52.16,38.56,58.97,149.69,Single-ply,SBD,M
Boys,59.87,DQ,Dalton Jenkins,Plainview,58.6,,,,,Single-ply,SBD,M
Boys,59.87,DQ,Seth Salinas,Olton,59.15,95.25,,,,Single-ply,SBD,M
Boys,59.87,DQ,Dustin Beverage,Plainview,57.42,83.91,,,,Single-ply,SBD,M
Boys,59.87,DQ,Riley Lookingbill,Vega,57.7,104.33,,,,Single-ply,SBD,M
Boys,67.13,1,Jordan Ruiz,Seagraves,66.77,238.14,140.61,235.87,614.62,Single-ply,SBD,M
Boys,67.13,2,Adan Ramirez,Friona,66.68,217.72,111.13,204.12,532.97,Single-ply,SBD,M
Boys,67.13,3,Elliot Hanna,Levelland,66.32,174.63,117.93,181.44,474,Single-ply,SBD,M
Boys,67.13,4,Eli Rodriguez,Seagraves,66.68,181.44,95.25,181.44,458.13,Single-ply,SBD,M
Boys,67.13,5,Franky Medina,Dalhart,66.59,179.17,106.59,165.56,451.32,Single-ply,SBD,M
Boys,67.13,6,Reece Harper,Sudan,63.41,154.22,88.45,192.78,435.45,Single-ply,SBD,M
Boys,67.13,7,Adrian Gonzalez,Floydada,65.77,174.63,68.04,163.29,405.97,Single-ply,SBD,M
Boys,67.13,8,Jacob Garza,Olton,66.68,142.88,99.79,154.22,396.89,Single-ply,SBD,M
Boys,67.13,9,Cristian Paez,Muleshoe,60.87,140.61,79.38,163.29,383.29,Single-ply,SBD,M
Boys,67.13,10,Brian Amador,Lamesa,62.6,147.42,92.99,142.88,383.29,Single-ply,SBD,M
Boys,67.13,11,Zane Clark,Canyon,63.32,124.74,92.99,142.88,360.61,Single-ply,SBD,M
Boys,67.13,12,Isiah Perez,Dalhart,65.86,136.08,74.84,142.88,353.8,Single-ply,SBD,M
Boys,67.13,13,Garrett Ely,Sunray,61.6,113.4,77.11,129.27,319.78,Single-ply,SBD,M
Boys,67.13,14,Raul Trevino,Muleshoe,64.95,102.06,72.57,136.08,310.71,Single-ply,SBD,M
Boys,67.13,15,Joseph Partin,Plainview,61.78,120.2,65.77,122.47,308.44,Single-ply,SBD,M
Boys,67.13,16,Eziquiel Torrez,Floydada,60.42,108.86,65.77,111.13,285.76,Single-ply,SBD,M
Boys,74.84,17,Damon Jones,Olton,67.22,90.72,63.5,127.01,281.23,Single-ply,SBD,M
Boys,67.13,18,Brayden Awbrey,Kermit,63.87,104.33,58.97,88.45,251.74,Single-ply,SBD,M
Boys,67.13,19,Alex Lucero,Bovina,62.55,61.23,68.04,120.2,249.48,Single-ply,SBD,M
Boys,67.13,20,Kyle Branson,Lamesa,61.33,68.04,49.9,102.06,219.99,Single-ply,SBD,M
Boys,67.13,DQ,Calvin Rodriguez,Plainview,64.77,106.59,,,,Single-ply,SBD,M
Boys,67.13,DQ,Alexander Garcia,Plainview,65.23,124.74,,,,Single-ply,SBD,M
Boys,67.13,DQ,Casey Ayala,Vega,63.59,,,,,Single-ply,SBD,M
Boys,67.13,DQ,Logan Simmons,Vega,63.41,102.06,,,,Single-ply,SBD,M
Boys,74.84,1,Marcus Ruff,Whiteface,74.84,158.76,90.72,226.8,476.27,Single-ply,SBD,M
Boys,74.84,2,Barry Johnson,Sudan,68.67,172.37,113.4,181.44,467.2,Single-ply,SBD,M
Boys,74.84,3,Jarric Weber,Borger,68.13,151.95,102.06,183.7,437.72,Single-ply,SBD,M
Boys,74.84,4,Steven Vallejo,Plainview,74.03,165.56,83.91,188.24,437.72,Single-ply,SBD,M
Boys,74.84,5,Braden Bessire,Muleshoe,72.12,172.37,86.18,176.9,435.45,Single-ply,SBD,M
Boys,74.84,6,Paul Perez,Levelland,73.21,158.76,104.33,172.37,435.45,Single-ply,SBD,M
Boys,74.84,7,Ryan Shemwell,Panhandle,69.04,156.49,106.59,154.22,417.3,Single-ply,SBD,M
Boys,74.84,8,Jake Samaneigo,Lamesa,69.4,158.76,99.79,156.49,415.04,Single-ply,SBD,M
Boys,82.1,9,Kyle McConnell,Plainview,75.02,142.88,97.52,170.1,410.5,Single-ply,SBD,M
Boys,74.84,10,Fabian Honesto,Whiteface,70.94,145.15,74.84,163.29,383.29,Single-ply,SBD,M
Boys,74.84,11,Garron Weber,Borger,69.22,136.08,83.91,149.69,369.68,Single-ply,SBD,M
Boys,74.84,12,Manuel Grado,Friona,73.84,129.27,86.18,142.88,358.34,Single-ply,SBD,M
Boys,74.84,13,Jose Rocha,Friona,72.85,120.2,86.18,142.88,349.27,Single-ply,SBD,M
Boys,74.84,14,Emilio Espinoza,Bovina,71.49,122.47,61.23,158.76,342.46,Single-ply,SBD,M
Boys,74.84,15,Sergio Zapata,Sunray,70.22,136.08,65.77,124.74,326.59,Single-ply,SBD,M
Boys,74.84,16,Ethan Hays,Panhandle,70.58,113.4,77.11,120.2,310.71,Single-ply,SBD,M
Boys,74.84,17,Dillon Hibbitts,Seagraves,71.21,106.59,68.04,131.54,306.17,Single-ply,SBD,M
Boys,74.84,18,Mason Mercer,Panhandle,71.85,117.93,63.5,117.93,299.37,Single-ply,SBD,M
Boys,74.84,19,Robert Mora,Floydada,73.03,88.45,72.57,102.06,263.08,Single-ply,SBD,M
Boys,74.84,20,Pedro Armendariz,Plainview,73.12,102.06,56.7,102.06,260.82,Single-ply,SBD,M
Boys,74.84,21,Justin Gandy,Panhandle,74.57,102.06,45.36,97.52,244.94,Single-ply,SBD,M
Boys,74.84,DQ,Dominik Hasley,Muleshoe,71.49,102.06,,,,Single-ply,SBD,M
Boys,82.1,1,Federico Carmona,Floydada,80.38,226.8,124.74,215.46,566.99,Single-ply,SBD,M
Boys,82.1,2,Guillermo Davila,Dalhart,79.11,238.14,113.4,204.12,555.65,Single-ply,SBD,M
Boys,82.1,3,Cristopher Stallings,Kermit,82.01,192.78,138.35,199.58,530.7,Single-ply,SBD,M
Boys,82.1,4,Dalten Luman,Panhandle,78.2,188.24,106.59,204.12,498.95,Single-ply,SBD,M
Boys,82.1,5,Michael Garcia,Friona,80.29,188.24,129.27,174.63,492.15,Single-ply,SBD,M
Boys,89.81,6,Abel Palacios,Friona,82.33,183.7,108.86,183.7,476.27,Single-ply,SBD,M
Boys,82.1,7,Kain Alexander,Levelland,81.19,172.37,104.33,174.63,451.32,Single-ply,SBD,M
Boys,82.1,8,Carlos Hinojosa,Lamesa,75.21,167.83,90.72,176.9,435.45,Single-ply,SBD,M
Boys,82.1,9,Kody Duncan,Levelland,81.1,165.56,106.59,161.03,433.18,Single-ply,SBD,M
Boys,82.1,10,Mario Lechuga,Sunray,79.92,158.76,97.52,174.63,430.91,Single-ply,SBD,M
Boys,82.1,11,Tyler Baker,Borger,76.38,156.49,113.4,158.76,428.64,Single-ply,SBD,M
Boys,82.1,12,Rene Rodriguez,Friona,80.2,156.49,102.06,167.83,426.38,Single-ply,SBD,M
Boys,82.1,13,Dominique de la Rosa #1,Sunray,77.56,161.03,79.38,156.49,396.89,Single-ply,SBD,M
Boys,82.1,14,Efrain Martinez,Bovina,81.33,138.35,86.18,163.29,387.82,Single-ply,SBD,M
Boys,82.1,15,Sebastian Garza,Olton,81.65,140.61,102.06,145.15,387.82,Single-ply,SBD,M
Boys,82.1,16,Trevor Sustatia,Dalhart,78.65,142.88,92.99,149.69,385.55,Single-ply,SBD,M
Boys,82.1,17,Roman Salazar,Lamesa,78.29,136.08,74.84,147.42,358.34,Single-ply,SBD,M
Boys,82.1,18,Wesley Ward,Borger,80.83,138.35,81.65,136.08,356.07,Single-ply,SBD,M
Boys,82.1,19,Jaime Cigarroa,Friona,78.83,142.88,72.57,133.81,349.27,Single-ply,SBD,M
Boys,82.1,20,Isaac Summerlin,Friona,77.38,131.54,61.23,147.42,340.19,Single-ply,SBD,M
Boys,82.1,21,Bryce Day,Borger,77.02,133.81,70.31,127.01,331.12,Single-ply,SBD,M
Boys,82.1,22,Christopher Chavez #3,Friona,75.75,124.74,63.5,136.08,324.32,Single-ply,SBD,M
Boys,82.1,23,Rico Alvarez,Olton,76.2,113.4,65.77,136.08,315.25,Single-ply,SBD,M
Boys,82.1,24,Jeremiah Fuentes,Abernathy,81.37,113.4,79.38,113.4,306.17,Single-ply,SBD,M
Boys,82.1,25,Hagen Lowery,Plains,79.2,88.45,70.31,122.47,281.23,Single-ply,SBD,M
Boys,89.81,1,Aaron Chavarria,Floydada,85.64,272.16,145.15,235.87,653.17,Single-ply,SBD,M
Boys,89.81,2,Nick Anna,Plains,86.36,195.04,111.13,235.87,542.04,Single-ply,SBD,M
Boys,89.81,3,Alexis Mendoza,Sunray,83.19,201.85,108.86,215.46,526.17,Single-ply,SBD,M
Boys,89.81,4,Gabe Marquez,Dalhart,88.09,181.44,127.01,190.51,498.95,Single-ply,SBD,M
Boys,89.81,5,Miguel Rangel,Borger,83.64,183.7,106.59,174.63,464.93,Single-ply,SBD,M
Boys,89.81,6,Matt Mendoza,Dimmitt,86.64,183.7,108.86,163.29,455.86,Single-ply,SBD,M
Boys,89.81,7,Ivan Delgado,Whiteface,85.09,165.56,106.59,181.44,453.59,Single-ply,SBD,M
Boys,89.81,8,Leonel Carillo,Bovina,89.09,142.88,111.13,181.44,435.45,Single-ply,SBD,M
Boys,89.81,9,Zach Denny,Kermit,86.45,158.76,102.06,165.56,426.38,Single-ply,SBD,M
Boys,89.81,10,Jesus Davila,Whiteface,83.46,142.88,86.18,181.44,410.5,Single-ply,SBD,M
Boys,89.81,11,Gage Alexander,Panhandle,84.82,117.93,83.91,142.88,344.73,Single-ply,SBD,M
Boys,89.81,12,Bryson Kitchens,Abernathy,83.82,124.74,86.18,124.74,335.66,Single-ply,SBD,M
Boys,89.81,13,Julian Garcia,Bovina,83.91,127.01,74.84,133.81,335.66,Single-ply,SBD,M
Boys,89.81,14,Austin Archuleta,Panhandle,84.01,147.42,70.31,113.4,331.12,Single-ply,SBD,M
Boys,89.81,15,Marcos Hernandez,Lamesa,88,102.06,61.23,102.06,265.35,Single-ply,SBD,M
Boys,89.81,16,Leo Montoya,Whiteface,82.78,74.84,61.23,113.4,249.48,Single-ply,SBD,M
Boys,89.81,17,Allen Hernandez,Bovina,88.27,70.31,49.9,120.2,240.4,Single-ply,SBD,M
Boys,89.81,DQ,Carson Turner,Floydada,83.19,120.2,,,,Single-ply,SBD,M
Boys,89.81,DQ,Cesar Calderon,Sunray,87.09,,,,,Single-ply,SBD,M
Boys,89.81,DQ,Jonathan Anderson,Sunray,82.37,,,,,Single-ply,SBD,M
Boys,99.79,1,Daniel Cooper,Kermit,99.52,188.24,127.01,215.46,530.7,Single-ply,SBD,M
Boys,99.79,2,Kevin Flores,Sunray,96.98,188.24,117.93,176.9,483.08,Single-ply,SBD,M
Boys,99.79,3,Javier Torres,Dalhart,99.7,183.7,102.06,192.78,478.54,Single-ply,SBD,M
Boys,109.77,4,Jacob Harris,Dalhart,99.88,183.7,102.06,188.24,474,Single-ply,SBD,M
Boys,99.79,5,Roy Abananu,Plainview,92.44,170.1,102.06,197.31,469.47,Single-ply,SBD,M
Boys,99.79,6,Alex Ayala,Lamesa,95.35,174.63,124.74,165.56,464.93,Single-ply,SBD,M
Boys,99.79,7,Kalob Brumley,Canyon,97.16,176.9,102.06,181.44,460.4,Single-ply,SBD,M
Boys,99.79,8,Israel Rosalez,Seagraves,99.56,170.1,113.4,161.03,444.52,Single-ply,SBD,M
Boys,99.79,9,Tristan Hernandez,Dimmitt,92.9,167.83,99.79,170.1,437.72,Single-ply,SBD,M
Boys,99.79,10,Carlos Martinez,Muleshoe,98.07,176.9,83.91,151.95,412.77,Single-ply,SBD,M
Boys,99.79,11,Obed Lujan,Dalhart,90.45,158.76,79.38,142.88,381.02,Single-ply,SBD,M
Boys,99.79,12,Cobee Harrison,Sunray,92.08,151.95,68.04,154.22,374.21,Single-ply,SBD,M
Boys,99.79,13,Eric Vela,Canyon,95.44,131.54,83.91,142.88,358.34,Single-ply,SBD,M
Boys,99.79,14,Austin Slayton,Canyon,99.52,131.54,83.91,129.27,344.73,Single-ply,SBD,M
Boys,99.79,15,Isaiah Marquez #1,Kermit,95.98,124.74,92.99,124.74,342.46,Single-ply,SBD,M
Boys,99.79,16,Matt Gauthier,Canyon,98.43,122.47,92.99,117.93,333.39,Single-ply,SBD,M
Boys,99.79,17,Matthew Leyva,Kermit,97.79,142.88,61.23,97.52,301.64,Single-ply,SBD,M
Boys,99.79,18,Fernando Casteneda,Bovina,98.43,129.27,61.23,102.06,292.57,Single-ply,SBD,M
Boys,99.79,DQ,Jesse Gomez,Canyon,99.34,,,,,Single-ply,SBD,M
Boys,109.77,1,Abayomi Salinas,Friona,109.5,240.4,120.2,208.65,569.26,Single-ply,SBD,M
Boys,109.77,2,Tyler Brewer,Dalhart,105.96,206.38,102.06,215.46,523.9,Single-ply,SBD,M
Boys,109.77,3,Alex King,Levelland,100.24,183.7,115.67,199.58,498.95,Single-ply,SBD,M
Boys,109.77,4,Damian Rodriguez,Kermit,105.05,183.7,122.47,192.78,498.95,Single-ply,SBD,M
Boys,109.77,5,Joel Salas,Bovina,107.59,174.63,117.93,204.12,496.68,Single-ply,SBD,M
Boys,109.77,6,Juan Valenzuela,Kermit,101.51,170.1,122.47,192.78,485.34,Single-ply,SBD,M
Boys,109.77,7,Dakota McWhorter,Panhandle,104.78,183.7,108.86,172.37,464.93,Single-ply,SBD,M
Boys,109.77,8,David Ramirez,Plains,106.78,181.44,111.13,167.83,460.4,Single-ply,SBD,M
Boys,109.77,9,Manny Munoz,Olton,108.14,192.78,90.72,172.37,455.86,Single-ply,SBD,M
Boys,109.77,10,Juan Samarron,Friona,105.78,147.42,120.2,167.83,435.45,Single-ply,SBD,M
Boys,109.77,11,Dillon DeLeon,Lockney,102.51,158.76,111.13,158.76,428.64,Single-ply,SBD,M
Boys,109.77,12,Dahel Davila,Whiteface,103.51,147.42,102.06,170.1,419.57,Single-ply,SBD,M
Boys,109.77,13,Steven Holsey,Borger,106.59,165.56,79.38,154.22,399.16,Single-ply,SBD,M
Boys,109.77,14,Skylar Tebo,Canyon,105.6,149.69,77.11,147.42,374.21,Single-ply,SBD,M
Boys,109.77,15,Brady Cooke,Panhandle,104.69,92.99,63.5,102.06,258.55,Single-ply,SBD,M
Boys,109.77,DQ,Scotty Martin,Dimmitt,104.78,199.58,,,,Single-ply,SBD,M
Boys,109.77,DQ,Aaron Williams,Sunray,109.13,188.24,92.99,,,Single-ply,SBD,M
Boys,124.74,1,Spencer Holsey,Borger,119.02,249.48,136.08,240.4,625.96,Single-ply,SBD,M
Boys,124.74,2,Colton Jones,Borger,113.94,190.51,111.13,217.72,519.36,Single-ply,SBD,M
Boys,124.74,3,Chris Simmons,Levelland,121.65,188.24,127.01,204.12,519.36,Single-ply,SBD,M
Boys,124.74,4,David Rodriguez,Muleshoe,111.49,190.51,127.01,199.58,517.1,Single-ply,SBD,M
Boys,124.74,5,Anthony Anzuldua,Dalhart,111.22,190.51,129.27,183.7,503.49,Single-ply,SBD,M
Boys,124.74,6,Camilo de la Rosa,Bovina,122.33,183.7,113.4,181.44,478.54,Single-ply,SBD,M
Boys,124.74,7,Justin Barrera,Dalhart,123.2,188.24,102.06,188.24,478.54,Single-ply,SBD,M
Boys,124.74,8,Javier Gonzalez,Borger,117.21,170.1,102.06,192.78,464.93,Single-ply,SBD,M
Boys,124.74,9,Andrew Smith #7,Panhandle,114.94,149.69,102.06,158.76,410.5,Single-ply,SBD,M
Boys,124.74,10,JJ Ramos,Kermit,119.39,133.81,102.06,165.56,401.43,Single-ply,SBD,M
Boys,124.74,DQ,Dalton Torres,Dalhart,117.48,,,,,Single-ply,SBD,M
Boys,124.74,DQ,Isaac Martinez,Kermit,113.58,,,,,Single-ply,SBD,M
Boys,124.74,DQ,Tyson Wertz,Plainview,117.12,,,,,Single-ply,SBD,M
Boys,124.74+,1,Edgar Guerrero,Friona,130.27,312.98,161.03,288.03,762.04,Single-ply,SBD,M
Boys,124.74+,2,Kyle Weiss #1,Panhandle,143.24,249.48,188.24,204.12,641.83,Single-ply,SBD,M
Boys,124.74+,3,Colby Roach,Panhandle,135.08,208.65,113.4,183.7,505.76,Single-ply,SBD,M
Boys,124.74+,4,Rudy Jackson,Dimmitt,126.92,185.97,113.4,151.95,451.32,Single-ply,SBD,M
Boys,124.74+,5,Brandon Rowand,Levelland,153.5,142.88,124.74,181.44,449.06,Single-ply,SBD,M
Boys,124.74+,6,Cody Amador,Lockney,179.53,149.69,124.74,149.69,424.11,Single-ply,SBD,M
Boys,124.74+,7,Casey Stewart,Dalhart,127.82,158.76,90.72,142.88,392.36,Single-ply,SBD,M
Boys,124.74+,8,Tucker Wise,Panhandle,138.62,124.74,83.91,142.88,351.53,Single-ply,SBD,M
Boys,124.74+,9,Jesse Hernandez,Lamesa,127.28,131.54,83.91,117.93,333.39,Single-ply,SBD,M
Boys,124.74+,DQ,Santos Jackson,Dimmitt,144.06,,,,,Single-ply,SBD,M
